absl-py==0.6.1
astor==0.7.1
backports.weakref==1.0.post1
certifi==2018.10.15
chardet==3.0.4
Click==7.0
dlib==19.16.0
dnspython==1.15.0
enum34==1.1.6
eventlet==0.24.1
Flask==1.0.2
Flask-SocketIO==3.0.2
funcsigs==1.0.2
futures==3.2.0
gast==0.2.0
greenlet==0.4.15
grpcio==1.16.1
h5py==2.8.0
html5lib==1.0.1
idna==2.7
imutils==0.5.1
itsdangerous==1.1.0
Jinja2==2.10
Keras==2.2.4
Keras-Applications==1.0.6
Keras-Preprocessing==1.0.5
Markdown==3.0.1
MarkupSafe==1.1.0
mock==2.0.0
monotonic==1.5
numpy==1.15.4
opencv-python==3.4.3.18
pbr==5.1.1
Pillow==5.3.0
pkg-resources==0.0.0
protobuf==3.6.1
python-engineio==2.3.2
python-socketio==2.0.0
PyYAML==3.13
requests==2.20.1
scipy==1.1.0
six==1.11.0
tensorboard==1.12.0
tensorflow==1.12.0
termcolor==1.1.0
urllib3==1.24.1
webencodings==0.5.1
Werkzeug==0.14.1
